{
  "formatVersion": 1,
  "database": {
    "version": 4,
    "identityHash": "9a00196287e8e8e68314694bc4ec94f3",
    "entities": [
      {
        "tableName": "downloadIds",
        "createSql": "CREATE TABLE IF NOT EXISTS `${TABLE_NAME}` (`downloadId` INTEGER, `fileName` TEXT, `reason` TEXT, `fileId` INTEGER NOT NULL, `downloadStatus` TEXT NOT NULL, `song` TEXT, PRIMARY KEY(`downloadId`))",
        "fields": [
          {
            "fieldPath": "downloadId",
            "columnName": "downloadId",
            "affinity": "INTEGER",
            "notNull": false
          },
          {
            "fieldPath": "fileName",
            "columnName": "fileName",
            "affinity": "TEXT",
            "notNull": false
          },
          {
            "fieldPath": "reason",
            "columnName": "reason",
            "affinity": "TEXT",
            "notNull": false
          },
          {
            "fieldPath": "translationId",
            "columnName": "fileId",
            "affinity": "INTEGER",
            "notNull": true
          },
          {
            "fieldPath": "downloadStatus",
            "columnName": "downloadStatus",
            "affinity": "TEXT",
            "notNull": true
          },
          {
            "fieldPath": "mSong",
            "columnName": "song",
            "affinity": "TEXT",
            "notNull": false
          }
        ],
        "primaryKey": {
          "columnNames": [
            "downloadId"
          ],
          "autoGenerate": false
        },
        "indices": [],
        "foreignKeys": []
      },
      {
        "tableName": "Song",
        "createSql": "CREATE TABLE IF NOT EXISTS `${TABLE_NAME}` (`albumId` INTEGER, `albumName` TEXT, `artist` TEXT, `artistId` INTEGER, `categoryId` INTEGER, `coverImageUrl` TEXT, `isAddedToPlayList` INTEGER, `isFavourit` INTEGER, `lyrics` TEXT, `playListId` INTEGER, `songAudioUrl` TEXT, `audiofileName` TEXT, `videofileName` TEXT, `songDuration` INTEGER, `songPrice` REAL, `songId` INTEGER, `songStatus` TEXT, `songTitle` TEXT, `songVideoUrl` TEXT, `localPath` TEXT, PRIMARY KEY(`songId`))",
        "fields": [
          {
            "fieldPath": "albumId",
            "columnName": "albumId",
            "affinity": "INTEGER",
            "notNull": false
          },
          {
            "fieldPath": "albumName",
            "columnName": "albumName",
            "affinity": "TEXT",
            "notNull": false
          },
          {
            "fieldPath": "artist",
            "columnName": "artist",
            "affinity": "TEXT",
            "notNull": false
          },
          {
            "fieldPath": "artistId",
            "columnName": "artistId",
            "affinity": "INTEGER",
            "notNull": false
          },
          {
            "fieldPath": "categoryId",
            "columnName": "categoryId",
            "affinity": "INTEGER",
            "notNull": false
          },
          {
            "fieldPath": "coverImageUrl",
            "columnName": "coverImageUrl",
            "affinity": "TEXT",
            "notNull": false
          },
          {
            "fieldPath": "isAddedToPlayList",
            "columnName": "isAddedToPlayList",
            "affinity": "INTEGER",
            "notNull": false
          },
          {
            "fieldPath": "isFavourit",
            "columnName": "isFavourit",
            "affinity": "INTEGER",
            "notNull": false
          },
          {
            "fieldPath": "lyrics",
            "columnName": "lyrics",
            "affinity": "TEXT",
            "notNull": false
          },
          {
            "fieldPath": "playListId",
            "columnName": "playListId",
            "affinity": "INTEGER",
            "notNull": false
          },
          {
            "fieldPath": "songAudioUrl",
            "columnName": "songAudioUrl",
            "affinity": "TEXT",
            "notNull": false
          },
          {
            "fieldPath": "audiofileName",
            "columnName": "audiofileName",
            "affinity": "TEXT",
            "notNull": false
          },
          {
            "fieldPath": "videofileName",
            "columnName": "videofileName",
            "affinity": "TEXT",
            "notNull": false
          },
          {
            "fieldPath": "songDuration",
            "columnName": "songDuration",
            "affinity": "INTEGER",
            "notNull": false
          },
          {
            "fieldPath": "songPrice",
            "columnName": "songPrice",
            "affinity": "REAL",
            "notNull": false
          },
          {
            "fieldPath": "songId",
            "columnName": "songId",
            "affinity": "INTEGER",
            "notNull": false
          },
          {
            "fieldPath": "songStatus",
            "columnName": "songStatus",
            "affinity": "TEXT",
            "notNull": false
          },
          {
            "fieldPath": "songTitle",
            "columnName": "songTitle",
            "affinity": "TEXT",
            "notNull": false
          },
          {
            "fieldPath": "songVideoUrl",
            "columnName": "songVideoUrl",
            "affinity": "TEXT",
            "notNull": false
          },
          {
            "fieldPath": "localPath",
            "columnName": "localPath",
            "affinity": "TEXT",
            "notNull": false
          }
        ],
        "primaryKey": {
          "columnNames": [
            "songId"
          ],
          "autoGenerate": false
        },
        "indices": [],
        "foreignKeys": []
      }
    ],
    "views": [],
    "setupQueries": [
      "CREATE TABLE IF NOT EXISTS room_master_table (id INTEGER PRIMARY KEY,identity_hash TEXT)",
      "INSERT OR REPLACE INTO room_master_table (id,identity_hash) VALUES(42, '9a00196287e8e8e68314694bc4ec94f3')"
    ]
  }
}